Big Data en la Euroliga-ACB
…
A continuación mostraré un gráfico a cerca de los equipos más victoriosos de la competición

Código

most_wins <- euroliga%>%
  select(DATE,AT,HT,WINNER)%>%
  group_by(WINNER) %>% 
  mutate(victoria_num = sum( NN = n())) %>% 
  filter(victoria_num >= 40) %>% 
  arrange(victoria_num) %>% 
  mutate( suma_vic = cumsum(WINNER))%>%
  arrange(desc(victoria_num))%>%
  distinct(victoria_num)
most_wins
#> # A tibble: 24 × 2
#> # Groups:   WINNER [24]
#>    WINNER           victoria_num
#>    <chr>                   <int>
#>  1 CSKA Moscow               339
#>  2 Barcelona                 275
#>  3 Panathinaikos             254
#>  4 Real Madrid               252
#>  5 Olympiacos                246
#>  6 Maccabi Tel Aviv          234
#>  7 Anadolu Efes SK           183
#>  8 Fenerbahce Ulker          183
#>  9 Zalgiris Kaunas           146
#> 10 Unicaja                   138
#> # … with 14 more rows
…
